sha.sim/sim_1/behav/xsim/tb.vcd
$date
   Thu Jan  2 13:26:53 2025
$end

$version
  2024.1
  $dumpfile ("tb.vcd") 
$end

$timescale
  1ps
$end

$scope module tb $end
$var reg 1 ! clk $end
$var reg 1 " reset_n $end
$var reg 1 # start $end
$var reg 512 $ in [511:0] $end
$var wire 256 % out [255:0] $end
$scope module DUT $end
$var wire 1 & clk $end
$var wire 1 ' start $end
$var wire 1 ( reset_n $end
$var wire 512 ) in [511:0] $end
$var reg 256 * out [255:0] $end
$var reg 4 + round_nm_reg [3:0] $end
$var reg 4 , round_nm_new [3:0] $end
$var reg 2 - round_ctrl_reg [1:0] $end
$var reg 2 . round_ctrl_new [1:0] $end
$var reg 1 / round_nm_rst $end
$var reg 1 0 round_nm_inc $end
$var reg 32 1 a_reg [31:0] $end
$var reg 32 2 b_reg [31:0] $end
$var reg 32 3 c_reg [31:0] $end
$var reg 32 4 d_reg [31:0] $end
$var reg 32 5 e_reg [31:0] $end
$var reg 32 6 f_reg [31:0] $end
$var reg 32 7 g_reg [31:0] $end
$var reg 32 8 h_reg [31:0] $end
$var reg 32 9 a_new [31:0] $end
$var reg 32 : b_new [31:0] $end
$var reg 32 ; c_new [31:0] $end
$var reg 32 < d_new [31:0] $end
$var reg 32 = e_new [31:0] $end
$var reg 32 > f_new [31:0] $end
$var reg 32 ? g_new [31:0] $end
$var reg 32 @ h_new [31:0] $end
$var wire 32 A a_wire [31:0] $end
$var wire 32 B b_wire [31:0] $end
$var wire 32 C c_wire [31:0] $end
$var wire 32 D d_wire [31:0] $end
$var wire 32 E e_wire [31:0] $end
$var wire 32 F f_wire [31:0] $end
$var wire 32 G g_wire [31:0] $end
$var wire 32 H h_wire [31:0] $end
$var wire 32 I H0_0 [31:0] $end
$var wire 32 J H1_0 [31:0] $end
$var wire 32 K H2_0 [31:0] $end
$var wire 32 L H3_0 [31:0] $end
$var wire 32 M H4_0 [31:0] $end
$var wire 32 N H5_0 [31:0] $end
$var wire 32 O H6_0 [31:0] $end
$var wire 32 P H7_0 [31:0] $end
$var reg 32 Q H0 [31:0] $end
$var reg 32 R H1 [31:0] $end
$var reg 32 S H2 [31:0] $end
$var reg 32 T H3 [31:0] $end
$var reg 32 U H4 [31:0] $end
$var reg 32 V H5 [31:0] $end
$var reg 32 W H6 [31:0] $end
$var reg 32 X H7 [31:0] $end
$var wire 2048 Y W [2047:0] $end
$scope module ms_inst $end
$var wire 512 ) in [511:0] $end
$var wire 2048 Y out [2047:0] $end
$var reg 2048 Z W [2047:0] $end
$var integer 32 [ i [31:0] $end
$scope function rho0 $end
$var reg 32 \ rho0 [31:0] $end
$var reg 32 ] x [31:0] $end
$upscope $end
$scope function rho1 $end
$var reg 32 ^ rho1 [31:0] $end
$var reg 32 _ x [31:0] $end
$upscope $end
$scope function ROTR $end
$var reg 32 ` ROTR [31:0] $end
$var reg 32 a x [31:0] $end
$var reg 5 b n [4:0] $end
$upscope $end
$scope function SHR $end
$var reg 32 c SHR [31:0] $end
$var reg 32 d x [31:0] $end
$var reg 5 e n [4:0] $end
$upscope $end
$upscope $end
$scope module c_inst $end
$var wire 32 f a [31:0] $end
$var wire 32 g b [31:0] $end
$var wire 32 h c [31:0] $end
$var wire 32 i d [31:0] $end
$var wire 32 j e [31:0] $end
$var wire 32 k f [31:0] $end
$var wire 32 l g [31:0] $end
$var wire 32 m h [31:0] $end
$var wire 4 n r [3:0] $end
$var wire 2048 Y W [2047:0] $end
$var wire 32 A ao [31:0] $end
$var wire 32 B bo [31:0] $end
$var wire 32 C co [31:0] $end
$var wire 32 D do [31:0] $end
$var wire 32 E eo [31:0] $end
$var wire 32 F fo [31:0] $end
$var wire 32 G go [31:0] $end
$var wire 32 H ho [31:0] $end
$scope module round_gen[0].kc_inst $end
$var wire 6 o round [5:0] $end
$var wire 32 p K [31:0] $end
$var reg 32 q tmp_K [31:0] $end
$upscope $end
$scope module round_gen[1].kc_inst $end
$var wire 6 r round [11:6] $end
$var wire 32 s K [63:32] $end
$var reg 32 t tmp_K [31:0] $end
$upscope $end
$scope module round_gen[2].kc_inst $end
$var wire 6 u round [17:12] $end
$var wire 32 v K [95:64] $end
$var reg 32 w tmp_K [31:0] $end
$upscope $end
$scope module round_gen[3].kc_inst $end
$var wire 6 x round [23:18] $end
$var wire 32 y K [127:96] $end
$var reg 32 z tmp_K [31:0] $end
$upscope $end
$scope module round_gen[4].kc_inst $end
$var wire 6 { round [29:24] $end
$var wire 32 | K [159:128] $end
$var reg 32 } tmp_K [31:0] $end
$upscope $end
$scope module round_gen[5].kc_inst $end
$var wire 6 ~ round [35:30] $end
$var wire 32 !! K [191:160] $end
$var reg 32 "! tmp_K [31:0] $end
$upscope $end
$scope module round_gen[6].kc_inst $end
$var wire 6 #! round [41:36] $end
$var wire 32 $! K [223:192] $end
$var reg 32 %! tmp_K [31:0] $end
$upscope $end
$scope module round_gen[7].kc_inst $end
$var wire 6 &! round [47:42] $end
$var wire 32 '! K [255:224] $end
$var reg 32 (! tmp_K [31:0] $end
$upscope $end
$scope function Maj $end
$var reg 32 )! Maj [31:0] $end
$var reg 32 *! x [31:0] $end
$var reg 32 +! y [31:0] $end
$var reg 32 ,! z [31:0] $end
$upscope $end
$scope function Ch $end
$var reg 32 -! Ch [31:0] $end
$var reg 32 .! x [31:0] $end
$var reg 32 /! y [31:0] $end
$var reg 32 0! z [31:0] $end
$upscope $end
$scope function sig0 $end
$var reg 32 1! sig0 [31:0] $end
$var reg 32 2! x [31:0] $end
$upscope $end
$scope function sig1 $end
$var reg 32 3! sig1 [31:0] $end
$var reg 32 4! x [31:0] $end
$upscope $end
$scope function ROTR $end
$var reg 32 5! ROTR [31:0] $end
$var reg 32 6! x [31:0] $end
$var reg 5 7! n [4:0] $end
$upscope $end
$upscope $end
$upscope $end
$upscope $end
$enddefinitions $end

#0
$dumpvars
0!
bx !!
0"
bx "!
0#
bx #!
b1100001011000100110001110000000000000000000000000000000000000000000000000000000000000000000000000000000000000000000000000000000000000000000000000000000000000000000000000000000000000000000000000000000000000000000000000000000000000000000000000000000000000000000000000000000000000000000000000000000000000000000000000000000000000000000000000000000000000000000000000000000000000000000000000000000000000000000000000000000000000000000000000000000000000000000000000000000000000000000000000000000000000000000000000011000 $
bx $!
bx %
bx %!
0&
bx &!
0'
bx '!
0(
bx (!
b1100001011000100110001110000000000000000000000000000000000000000000000000000000000000000000000000000000000000000000000000000000000000000000000000000000000000000000000000000000000000000000000000000000000000000000000000000000000000000000000000000000000000000000000000000000000000000000000000000000000000000000000000000000000000000000000000000000000000000000000000000000000000000000000000000000000000000000000000000000000000000000000000000000000000000000000000000000000000000000000000000000000000000000000000011000 )
bx )!
bx *
bx *!
bx +
bx +!
b0 ,
bx ,!
bx -
bx -!
bx .
bx .!
0/
bx /!
00
bx 0!
bx 1
bx 1!
bx 2
bx 2!
bx 3
bx 3!
bx 4
bx 4!
bx 5
bx 5!
bx 6
bx 6!
bx 7
b11001 7!
bx 8
bx 9
bx :
bx ;
bx <
bx =
bx >
bx ?
bx @
bx A
bx B
bx C
bx D
bx E
bx F
bx G
bx H
b1101010000010011110011001100111 I
b10111011011001111010111010000101 J
b111100011011101111001101110010 K
b10100101010011111111010100111010 L
b1010001000011100101001001111111 M
b10011011000001010110100010001100 N
b11111100000111101100110101011 O
b1011011111000001100110100011001 P
bx Q
bx R
bx S
bx T
bx U
bx V
bx W
bx X
b1100001011000100110001110000000000000000000000000000000000000000000000000000000000000000000000000000000000000000000000000000000000000000000000000000000000000000000000000000000000000000000000000000000000000000000000000000000000000000000000000000000000000000000000000000000000000000000000000000000000000000000000000000000000000000000000000000000000000000000000000000000000000000000000000000000000000000000000000000000000000000000000000000000000000000000000000000000000000000000000000000000000000000000000000011000011000010110001001100011100000000000000000001111000000000000000001111101101010000110010000000101011000000000000000000011110001100011111010011101011110110111100000000001100000111111110000000000000100101101110010111111110110111110001011100010110000111000111011001000001000010101110000011010101101110011011001111001101000101110010110111100001110010000100100110010011001100011110001011011100111010010000010011101011001111110110010000111001001101100101101110000001000010011100010100100110100111011011110010111001110111001001111110101100110010111111100111011011010001011101001110011101011111111010011111111110000011111000100001010010111000110001000001010100010110011100110010110011100101010111110000011000010101001010000001001111000110011111000100100011001000001010100100010100111110100011110111111100101001111000010100110010011110101101000111110001001000110101001111001001001110011001100111011101000110000110001000111011000111111001010000100000010101011111100100111011110100010100100001101010111010000011001011100010000111101101011111011001111101000100111001011110011000111011000010111110110111011100111100110011011000011010010101001100110010011011001100111100001001011101011011110110111011100001000010100011000101011110000010100100001110100011100101100101100100000111101111010100110011110111101010111101110011100110111101011111001101011001000111000100111111110001100001001010111100111100010111100100011010100101110100100001111111100111100010101011001101000101100101111111110001110111010101011101000101100110000010010101100011110110111101011 Y
b1100001011000100110001110000000000000000000000000000000000000000000000000000000000000000000000000000000000000000000000000000000000000000000000000000000000000000000000000000000000000000000000000000000000000000000000000000000000000000000000000000000000000000000000000000000000000000000000000000000000000000000000000000000000000000000000000000000000000000000000000000000000000000000000000000000000000000000000000000000000000000000000000000000000000000000000000000000000000000000000000000000000000000000000000011000011000010110001001100011100000000000000000001111000000000000000001111101101010000110010000000101011000000000000000000011110001100011111010011101011110110111100000000001100000111111110000000000000100101101110010111111110110111110001011100010110000111000111011001000001000010101110000011010101101110011011001111001101000101110010110111100001110010000100100110010011001100011110001011011100111010010000010011101011001111110110010000111001001101100101101110000001000010011100010100100110100111011011110010111001110111001001111110101100110010111111100111011011010001011101001110011101011111111010011111111110000011111000100001010010111000110001000001010100010110011100110010110011100101010111110000011000010101001010000001001111000110011111000100100011001000001010100100010100111110100011110111111100101001111000010100110010011110101101000111110001001000110101001111001001001110011001100111011101000110000110001000111011000111111001010000100000010101011111100100111011110100010100100001101010111010000011001011100010000111101101011111011001111101000100111001011110011000111011000010111110110111011100111100110011011000011010010101001100110010011011001100111100001001011101011011110110111011100001000010100011000101011110000010100100001110100011100101100101100100000111101111010100110011110111101010111101110011100110111101011111001101011001000111000100111111110001100001001010111100111100010111100100011010100101110100100001111111100111100010101011001101000101100101111111110001110111010101011101000101100110000010010101100011110110111101011 Z
b1000000 [
b101010111000110101001011100101 \
b11111011001111101000100111001011 ]
b11110010000110101001110101011111 ^
b1100110100010110010111111111000 _
b10100010011100101111111011001111 `
b11111011001111101000100111001011 a
b10010 b
b11111011001111101000100111001 c
b11111011001111101000100111001011 d
b11 e
bx f
bx g
bx h
bx i
bx j
bx k
bx l
bx m
bx n
bx o
bx p
bx q
bx r
bx s
bx t
bx u
bx v
bx w
bx x
bx y
bx z
bx {
bx |
bx }
bx ~
$end

#5000
1!
b1001110110110001010101001001010 !!
b1001110110110001010101001001010 "!
b110110 #!
b1011011100111001100101001001111 $!
b1011011100111001100101001001111 %!
1&
b110111 &!
b1101000001011100110111111110011 '!
b1101000001011100110111111110011 (!
b0 +
b0 -
b11001 7!
b1110 n
b110000 o
b11001101001001100000100010110 p
b11001101001001100000100010110 q
b110001 r
b11110001101110110110000001000 s
b11110001101110110110000001000 t
b110010 u
b100111010010000111011101001100 v
b100111010010000111011101001100 w
b110011 x
b110100101100001011110010110101 y
b110100101100001011110010110101 z
b110100 {
b111001000111000000110010110011 |
b111001000111000000110010110011 }
b110101 ~

#10000
0!
1"
0&
1(

#12000
1#
1'
b1 ,
b1 .
1/

#15000
1!
b10100100010100000110110011101011 !!
b10100100010100000110110011101011 "!
b111110 #!
b10111110111110011010001111110111 $!
b10111110111110011010001111110111 %!
1&
b111111 &!
b11000110011100010111100011110010 '!
b11000110011100010111100011110010 (!
b1 +
b10 ,
b1 -
b10 .
0/
10
b11001 7!
b1101010000010011110011001100111 9
b10111011011001111010111010000101 :
b111100011011101111001101110010 ;
b10100101010011111111010100111010 <
b1010001000011100101001001111111 =
b10011011000001010110100010001100 >
b11111100000111101100110101011 ?
b1011011111000001100110100011001 @
b1111 n
b111000 o
b1110100100011111000001011101110 p
b1110100100011111000001011101110 q
b111001 r
b1111000101001010110001101101111 s
b1111000101001010110001101101111 t
b111010 u
b10000100110010000111100000010100 v
b10000100110010000111100000010100 w
b111011 x
b10001100110001110000001000001000 y
b10001100110001110000001000001000 z
b111100 {
b10010000101111101111111111111010 |
b10010000101111101111111111111010 }
b111101 ~

#20000
0!
0&

#25000
1!
b1011001111100010001000111110001 !!
b1011001111100010001000111110001 "!
b110 #!
b10010010001111111000001010100100 $!
b10010010001111111000001010100100 %!
1&
b111 &!
b10101011000111000101111011010101 '!
b10101011000111000101111011010101 (!
b100101010000100000101111100000 )!
b11100101000000110000001110000000 *!
b10 +
b101011010000100000100111110101 +!
b11 ,
b100010000001001101001101010 ,!
b10 -
b1010001100010100010001001000101 -!
b10011011001001111010010000000001 .!
b1110001010000100110000010101101 /!
10
b1000011101011011010001001000101 0!
b1101010000010011110011001100111 1
b101001010010011110101101101100 1!
b10111011011001111010111010000101 2
b11100101000000110000001110000000 2!
b111100011011101111001101110010 3
b10101100011011111101010101001 3!
b10100101010011111111010100111010 4
b10011011001001111010010000000001 4!
b1010001000011100101001001111111 5
b1100000011100000001110010100 5!
b10011011000001010110100010001100 6
b11100101000000110000001110000000 6!
b11111100000111101100110101011 7
b10110 7!
b1011011111000001100110100011001 8
b10000101101000000111101101011111 9
b11100101000000110000001110000000 :
b101011010000100000100111110101 ;
b100010000001001101001101010 <
b1100011001010111101001111001 =
b10011011001001111010010000000001 >
b1110001010000100110000010101101 ?
b1000011101011011010001001000101 @
b10000101101000000111101101011111 A
b11100101000000110000001110000000 B
b101011010000100000100111110101 C
b100010000001001101001101010 D
b1100011001010111101001111001 E
b10011011001001111010010000000001 F
b1110001010000100110000010101101 G
b1000011101011011010001001000101 H
b1101010000010011110011001100111 f
b10111011011001111010111010000101 g
b111100011011101111001101110010 h
b10100101010011111111010100111010 i
b1010001000011100101001001111111 j
b10011011000001010110100010001100 k
b11111100000111101100110101011 l
b1011011111000001100110100011001 m
b0 n
b0 o
b1000010100010100010111110011000 p
b1000010100010100010111110011000 q
b1 r
b1110001001101110100010010010001 s
b1110001001101110100010010010001 t
b10 u
b10110101110000001111101111001111 v
b10110101110000001111101111001111 w
b11 x
b11101001101101011101101110100101 y
b11101001101101011101101110100101 z
b100 {
b111001010101101100001001011011 |
b111001010101101100001001011011 }
b101 ~

#30000
0!
0&

#35000
1!
b10000000110111101011000111111110 !!
b10000000110111101011000111111110 "!
b1110 #!
b10011011110111000000011010100111 $!
b10011011110111000000011010100111 %!
1&
b1111 &!
b11000001100110111111000101110100 '!
b11000001100110111111000101110100 (!
b11000001001100000110101110010110 )!
b11000000011001000101111111011110 *!
b11 +
b11011001001100101110101100010110 +!
b100 ,
b10000111100100010010100110010000 ,!
b10100010101110100000000011100 -!
b1011100100101111001000001100 .!
b1110100010110100100100011011110 /!
10
b11110010101111000001000011000 0!
b10000101101000000111101101011111 1
b11011111100100000110111111010100 1!
b11100101000000110000001110000000 2
b11000000011001000101111111011110 2!
b101011010000100000100111110101 3
b10111000110101100011111110010011 3!
b100010000001001101001101010 4
b1011100100101111001000001100 4!
b1100011001010111101001111001 5
b10010001011111110111101100000001 5!
b10011011001001111010010000000001 6
b11000000011001000101111111011110 6!
b1110001010000100110000010101101 7
b10110 7!
b1000011101011011010001001000101 8
b10110000111110100010001110001110 9
b11000000011001000101111111011110 :
b11011001001100101110101100010110 ;
b10000111100100010010100110010000 <
b111010110010000110111001101 =
b1011100100101111001000001100 >
b1110100010110100100100011011110 ?
b11110010101111000001000011000 @
b10110000111110100010001110001110 A
b11000000011001000101111111011110 B
b11011001001100101110101100010110 C
b10000111100100010010100110010000 D
b111010110010000110111001101 E
b1011100100101111001000001100 F
b1110100010110100100100011011110 G
b11110010101111000001000011000 H
b10000101101000000111101101011111 f
b11100101000000110000001110000000 g
b101011010000100000100111110101 h
b100010000001001101001101010 i
b1100011001010111101001111001 j
b10011011001001111010010000000001 k
b1110001010000100110000010101101 l
b1000011101011011010001001000101 m
b1 n
b1000 o
b11011000000001111010101010011000 p
b11011000000001111010101010011000 q
b1001 r
b10010100000110101101100000001 s
b10010100000110101101100000001 t
b1010 u
b100100001100011000010110111110 v
b100100001100011000010110111110 w
b1011 x
b1010101000011000111110111000011 y
b1010101000011000111110111000011 z
b1100 {
b1110010101111100101110101110100 |
b1110010101111100101110101110100 }
b1101 ~

#40000
0!
0&

#45000
1!
b1001010011101001000010010101010 !!
b1001010011101001000010010101010 "!
b10110 #!
b1011100101100001010100111011100 $!
b1011100101100001010100111011100 %!
1&
b10111 &!
b1110110111110011000100011011010 '!
b1110110111110011000100011011010 (!
b10000111111000100110101101101111 )!
b10100111101000110110001000111111 *!
b100 +
b11000010011000000110110101101101 +!
b101 ,
b10011101110001101000101101100011 ,!
b11000011001011111001100101110000 -!
b1001001111101010001000101001010 .!
b11100001001001010111100101110000 /!
10
b10001010110110101000100100110000 0!
b10110000111110100010001110001110 1
b1110101100111010001101100001010 1!
b11000000011001000101111111011110 2
b10100111101000110110001000111111 2!
b11011001001100101110101100010110 3
b11111010111001100100111111000011 3!
b10000111100100010010100110010000 4
b1001001111101010001000101001010 4!
b111010110010000110111001101 5
b10001101100010001111111010011110 5!
b1011100100101111001000001100 6
b10100111101000110110001000111111 6!
b1110100010110100100100011011110 7
b10110 7!
b11110010101111000001000011000 8
b11000101110101010011110110001101 9
b10100111101000110110001000111111 :
b11000010011000000110110101101101 ;
b10011101110001101000101101100011 <
b10101010010001111100001101000111 =
b1001001111101010001000101001010 >
b11100001001001010111100101110000 ?
b10001010110110101000100100110000 @
b11000101110101010011110110001101 A
b10100111101000110110001000111111 B
b11000010011000000110110101101101 C
b10011101110001101000101101100011 D
b10101010010001111100001101000111 E
b1001001111101010001000101001010 F
b11100001001001010111100101110000 G
b10001010110110101000100100110000 H
b10110000111110100010001110001110 f
b11000000011001000101111111011110 g
b11011001001100101110101100010110 h
b10000111100100010010100110010000 i
b111010110010000110111001101 j
b1011100100101111001000001100 k
b1110100010110100100100011011110 l
b11110010101111000001000011000 m
b10 n
b10000 o
b11100100100110110110100111000001 p
b11100100100110110110100111000001 q
b10001 r
b11101111101111100100011110000110 s
b11101111101111100100011110000110 t
b10010 u
b1111110000011001110111000110 v
b1111110000011001110111000110 w
b10011 x
b100100000011001010000111001100 y
b100100000011001010000111001100 z
b10100 {
b101101111010010010110001101111 |
b101101111010010010110001101111 }
b10101 ~

#50000
0!
0&

#55000
1!
b11010101101001111001000101000111 !!
b11010101101001111001000101000111 "!
b11110 #!
b110110010100110001101010001 $!
b110110010100110001101010001 %!
1&
b11111 &!
b10100001010010010100101100111 '!
b10100001010010010100101100111 (!
b10100010000101000000101000100000 )!
b11101010100110010010101000100010 *!
b101 +
b10100000000001100000101100110000 +!
b110 ,
b110110001101001000001011001001 ,!
b1100001000100111000000010110111 -!
b1000010011010101100111010 .!
b10101101111001111001010000110111 /!
10
b1100001000100101010001110110111 0!
b11000101110101010011110110001101 1
b10001111000110011001010111101011 1!
b10100111101000110110001000111111 2
b11101010100110010010101000100010 2!
b11000010011000000110110101101101 3
b1011100100011001101010011001 3!
b10011101110001101000101101100011 4
b1000010011010101100111010 4!
b10101010010001111100001101000111 5
b1100100101010001000101110101010 5!
b1001001111101010001000101001010 6
b11101010100110010010101000100010 6!
b11100001001001010111100101110000 7
b10110 7!
b10001010110110101000100100110000 8
b1110011101100110011101111110101 9
b11101010100110010010101000100010 :
b10100000000001100000101100110000 ;
b110110001101001000001011001001 <
b10111010010110010001000100010010 =
b1000010011010101100111010 >
b10101101111001111001010000110111 ?
b1100001000100101010001110110111 @
b1110011101100110011101111110101 A
b11101010100110010010101000100010 B
b10100000000001100000101100110000 C
b110110001101001000001011001001 D
b10111010010110010001000100010010 E
b1000010011010101100111010 F
b10101101111001111001010000110111 G
b1100001000100101010001110110111 H
b11000101110101010011110110001101 f
b10100111101000110110001000111111 g
b11000010011000000110110101101101 h
b10011101110001101000101101100011 i
b10101010010001111100001101000111 j
b1001001111101010001000101001010 k
b11100001001001010111100101110000 l
b10001010110110101000100100110000 m
b11 n
b11000 o
b10011000001111100101000101010010 p
b10011000001111100101000101010010 q
b11001 r
b10101000001100011100011001101101 s
b10101000001100011100011001101101 t
b11010 u
b10110000000000110010011111001000 v
b10110000000000110010011111001000 w
b11011 x
b10111111010110010111111111000111 y
b10111111010110010111111111000111 z
b11100 {
b11000110111000000000101111110011 |
b11000110111000000000101111110011 }
b11101 ~

#60000
0!
0&

#65000
1!
b1110110011010100000101010111011 !!
b1110110011010100000101010111011 "!
b100110 #!
b10000001110000101100100100101110 $!
b10000001110000101100100100101110 %!
1&
b100111 &!
b10010010011100100010110010000101 '!
b10010010011100100010110010000101 (!
b1100101110001110101111010000000 )!
b1101101110001010111101010001010 *!
b110 +
b110100110111110001011000000100 +!
b111 ,
b1000001101001100101110010110001 ,!
b10100111000000101010000100101011 -!
b11110000011110000001101111001000 .!
b10100101000001111010010100111101 /!
10
b111011100101010001001101011 0!
b1110011101100110011101111110101 1
b1011010110010000001100100111110 1!
b11101010100110010010101000100010 2
b1101101110001010111101010001010 2!
b10100000000001100000101100110000 3
b1100110110100100000101100010100 3!
b110110001101001000001011001001 4
b11110000011110000001101111001000 4!
b10111010010110010001000100010010 5
b10101111010100010100110110111 5!
b1000010011010101100111010 6
b1101101110001010111101010001010 6!
b10101101111001111001010000110111 7
b10110 7!
b1100001000100101010001110110111 8
b1111001111010100110100001111010 9
b1101101110001010111101010001010 :
b110100110111110001011000000100 ;
b1000001101001100101110010110001 <
b11110111110111100000010100000 =
b11110000011110000001101111001000 >
b10100101000001111010010100111101 ?
b111011100101010001001101011 @
b1111001111010100110100001111010 A
b1101101110001010111101010001010 B
b110100110111110001011000000100 C
b1000001101001100101110010110001 D
b11110111110111100000010100000 E
b11110000011110000001101111001000 F
b10100101000001111010010100111101 G
b111011100101010001001101011 H
b1110011101100110011101111110101 f
b11101010100110010010101000100010 g
b10100000000001100000101100110000 h
b110110001101001000001011001001 i
b10111010010110010001000100010010 j
b1000010011010101100111010 k
b10101101111001111001010000110111 l
b1100001000100101010001110110111 m
b100 n
b100000 o
b100111101101110000101010000101 p
b100111101101110000101010000101 q
b100001 r
b101110000110110010000100111000 s
b101110000110110010000100111000 t
b100010 u
b1001101001011000110110111111100 v
b1001101001011000110110111111100 w
b100011 x
b1010011001110000000110100010011 y
b1010011001110000000110100010011 z
b100100 {
b1100101000010100111001101010100 |
b1100101000010100111001101010100 }
b100101 ~

#70000
0!
0&

#75000
1!
b11010110100110010000011000100100 !!
b11010110100110010000011000100100 "!
b101110 #!
b11110100000011100011010110000101 $!
b11110100000011100011010110000101 %!
1&
b101111 &!
b10000011010101010000001110000 '!
b10000011010101010000001110000 (!
b100010011010100000100010010001 )!
b10100001010011000001010010110000 *!
b111 +
b1110010101010110100101110010001 +!
b1000 ,
b100110011000101000100000010101 ,!
b10111101011101010001010111110001 -!
b11010101011110111001010010101001 .!
b10110111011101010101110110100001 /!
10
b10101000000011110001000111110000 0!
b1111001111010100110100001111010 1
b10111101100001001100110111001001 1!
b1101101110001010111101010001010 2
b10100001010011000001010010110000 2!
b110100110111110001011000000100 3
b10001111101001010001010111001010 3!
b1000001101001100101110010110001 4
b11010101011110111001010010101001 4!
b11110111110111100000010100000 5
b110000010100101100001010000101 5!
b11110000011110000001101111001000 6
b10100001010011000001010010110000 6!
b10100101000001111010010100111101 7
b10110 7!
b111011100101010001001101011 8
b1000001011100100011001010001101 9
b10100001010011000001010010110000 :
b1110010101010110100101110010001 ;
b100110011000101000100000010101 <
b11111110110011110000101111000110 =
b11010101011110111001010010101001 >
b10110111011101010101110110100001 ?
b10101000000011110001000111110000 @
b1000001011100100011001010001101 A
b10100001010011000001010010110000 B
b1110010101010110100101110010001 C
b100110011000101000100000010101 D
b11111110110011110000101111000110 E
b11010101011110111001010010101001 F
b10110111011101010101110110100001 G
b10101000000011110001000111110000 H
b1111001111010100110100001111010 f
b1101101110001010111101010001010 g
b110100110111110001011000000100 h
b1000001101001100101110010110001 i
b11110111110111100000010100000 j
b11110000011110000001101111001000 k
b10100101000001111010010100111101 l
b111011100101010001001101011 m
b101 n
b101000 o
b10100010101111111110100010100001 p
b10100010101111111110100010100001 q
b101001 r
b10101000000110100110011001001011 s
b10101000000110100110011001001011 t
b101010 u
b11000010010010111000101101110000 v
b11000010010010111000101101110000 w
b101011 x
b11000111011011000101000110100011 y
b11000111011011000101000110100011 z
b101100 {
b11010001100100101110100000011001 |
b11010001100100101110100000011001 }
b101101 ~

#80000
0!
0&

#85000
1!
b1001110110110001010101001001010 !!
b1001110110110001010101001001010 "!
b110110 #!
b1011011100111001100101001001111 $!
b1011011100111001100101001001111 %!
1&
b110111 &!
b1101000001011100110111111110011 '!
b1101000001011100110111111110011 (!
b110100010101000101111011011011 )!
b111110110001000101110011011011 *!
b1000 +
b11110101011100000010111111011011 +!
b1001 ,
b10000000111111101001010001111 ,!
b10010111100101100110011101000011 -!
b11100101000011100001101101001111 .!
b10011111010001111000011111000011 /!
10
b1010010100111100111110100000000 0!
b1000001011100100011001010001101 1
b111000000110111000110111101111 1!
b10100001010011000001010010110000 2
b111110110001000101110011011011 2!
b1110010101010110100101110010001 3
b11010001011001010011111001011100 3!
b100110011000101000100000010101 4
b11100101000011100001101101001111 4!
b11111110110011110000101111000110 5
b10001011100110110110011111011 5!
b11010101011110111001010010101001 6
b111110110001000101110011011011 6!
b10110111011101010101110110100001 7
b10110 7!
b10101000000011110001000111110000 8
b111000110011001001100100010011 9
b111110110001000101110011011011 :
b11110101011100000010111111011011 ;
b10000000111111101001010001111 <
b1010100110010110010011001101011 =
b11100101000011100001101101001111 >
b10011111010001111000011111000011 ?
b1010010100111100111110100000000 @
b111000110011001001100100010011 A
b111110110001000101110011011011 B
b11110101011100000010111111011011 C
b10000000111111101001010001111 D
b1010100110010110010011001101011 E
b11100101000011100001101101001111 F
b10011111010001111000011111000011 G
b1010010100111100111110100000000 H
b1000001011100100011001010001101 f
b10100001010011000001010010110000 g
b1110010101010110100101110010001 h
b100110011000101000100000010101 i
b11111110110011110000101111000110 j
b11010101011110111001010010101001 k
b10110111011101010101110110100001 l
b10101000000011110001000111110000 m
b110 n
b110000 o
b11001101001001100000100010110 p
b11001101001001100000100010110 q
b110001 r
b11110001101110110110000001000 s
b11110001101110110110000001000 t
b110010 u
b100111010010000111011101001100 v
b100111010010000111011101001100 w
b110011 x
b110100101100001011110010110101 y
b110100101100001011110010110101 z
b110100 {
b111001000111000000110010110011 |
b111001000111000000110010110011 }
b110101 ~

#90000
0!
0&

#95000
1!
b10100100010100000110110011101011 !!
b10100100010100000110110011101011 "!
b111110 #!
b10111110111110011010001111110111 $!
b10111110111110011010001111110111 %!
1&
b111111 &!
b11000110011100010111100011110010 '!
b11000110011100010111100011110010 (!
b10010000110110100010110101101101 )!
b11010011100110100010000101100101 *!
b1001 +
b100110100100100110101101100 +!
b1010 ,
b10111000010111100010110011101001 ,!
b10010100000011010100100010010100 -!
b11 .
b11111011000100100001001000010000 .!
b10010100100011010010010110110110 /!
10
b10010110000111110100100010010100 0!
b111000110011001001100100010011 1
b10111010011011000001111000110 1!
b111110110001000101110011011011 2
b11010011100110100010000101100101 2!
b11110101011100000010111111011011 3
b10001000111110100010001001110111 3!
b10000000111111101001010001111 4
b11111011000100100001001000010000 4!
b1010100110010110010011001101011 5
b1101000100001011001011101001110 5!
b11100101000011100001101101001111 6
b11010011100110100010000101100101 6!
b10011111010001111000011111000011 7
b10110 7!
b1010010100111100111110100000000 8
b1010000011011100011000001011000 9
b11010011100110100010000101100101 :
b100110100100100110101101100 ;
b10111000010111100010110011101001 <
b1011110111101010000111100100100 =
b11111011000100100001001000010000 >
b10010100100011010010010110110110 ?
b10010110000111110100100010010100 @
b1010000011011100011000001011000 A
b11010011100110100010000101100101 B
b100110100100100110101101100 C
b10111000010111100010110011101001 D
b1011110111101010000111100100100 E
b11111011000100100001001000010000 F
b10010100100011010010010110110110 G
b10010110000111110100100010010100 H
b111000110011001001100100010011 f
b111110110001000101110011011011 g
b11110101011100000010111111011011 h
b10000000111111101001010001111 i
b1010100110010110010011001101011 j
b11100101000011100001101101001111 k
b10011111010001111000011111000011 l
b1010010100111100111110100000000 m
b111 n
b111000 o
b1110100100011111000001011101110 p
b1110100100011111000001011101110 q
b111001 r
b1111000101001010110001101101111 s
b1111000101001010110001101101111 t
b111010 u
b10000100110010000111100000010100 v
b10000100110010000111100000010100 w
b111011 x
b10001100110001110000001000001000 y
b10001100110001110000001000001000 z
b111100 {
b10010000101111101111111111111010 |
b10010000101111101111111111111010 }
b111101 ~

#100000
0!
0&

